0,Rock001,-244,36,1,1,0,0,0,False,False,0,0,0,0,
0,Rock001,-7,28,1,1,0,0,0,False,False,0,0,0,0,
0,Rock001,313,99,1,1,0,0,0,False,False,0,0,0,0,
0,Rock001,425,-184,1,1,0,0,0,False,False,0,0,0,0,
0,Rock001,-26,-244,1,1,0,0,0,False,False,0,0,0,0,